<svg xmlns="http://www.w3.org/2000/svg" width="16" height="16" viewBox="0 0 16 16">
    <g fill="none" fill-rule="evenodd">
        <path stroke="#2C3E50" d="M14.397 7.93C13.883 4.272 11.798 2.5 8 2.5S2.117 4.272 1.603 7.93a.5.5 0 0 0 .495.57h11.804a.5.5 0 0 0 .495-.57zM1.5 10.5h13v5h-13z"/>
        <rect width="1" height="4" x="2.933" y="-.018" fill="#2C3E50" rx=".5" transform="rotate(-30 3.433 1.982)"/>
        <rect width="1" height="4" x="11.933" y="-.018" fill="#2C3E50" rx=".5" transform="rotate(30 12.433 1.982)"/>
        <circle cx="11" cy="6" r="1" fill="#2C3E50"/>
        <circle cx="5" cy="6" r="1" fill="#2C3E50"/>
    </g>
</svg>
