<svg xmlns="http://www.w3.org/2000/svg" width="286" height="340" viewBox="0 0 286 340">
    <g fill="none" fill-rule="nonzero">
        <g fill="#A4C639">
            <g transform="matrix(-1 0 0 1 286 6)">
                <path d="M162.065 69.693a2.9 2.9 0 0 0 3.961-1.062l36.5-63.22a2.9 2.9 0 1 0-5.023-2.9l-36.5 63.22a2.9 2.9 0 0 0 1.062 3.962zM116.911 69.693a2.9 2.9 0 0 1-3.961-1.062l-36.5-63.22a2.9 2.9 0 1 1 5.023-2.9l36.5 63.22a2.9 2.9 0 0 1-1.062 3.962z"/>
                <rect width="40" height="133" y="104" rx="20"/>
            </g>
            <g transform="translate(0 110)">
                <rect width="40" height="133" rx="20"/>
                <rect width="40" height="133" x="85" y="97" rx="20"/>
                <rect width="40" height="133" x="153" y="97" rx="20"/>
            </g>
            <path d="M52.006 109c.58-45.931 41.098-83 90.994-83s90.413 37.069 90.994 83H52.006zM52 117h182v132c0 12.15-9.85 22-22 22H74c-12.15 0-22-9.85-22-22V117z"/>
        </g>
        <path fill="#FFF" d="M101 76.6a7.6 7.6 0 1 1 0-15.2 7.6 7.6 0 0 1 0 15.2zm84 0a7.6 7.6 0 1 1 0-15.2 7.6 7.6 0 0 1 0 15.2z"/>
    </g>
</svg>
